Aprendizaje No Supervisado - E3
…
Como vemos la tabla está apilada en formato “long”. Vamos a pasarla a
formato “wide” de forma tal que cada variable quede como una
columna.

> df <- df %>%
+      pivot_wider(id_cols = c(iso3c, iso2c, country), names_from = indicatorID, values_from = value)
> 
> df
## # A tibble: 187 × 11
##    iso3c iso2c country      SL.AGR.EMPL.ZS SL.IND.EMPL.ZS SL.SRV.EMPL.ZS
##    <chr> <chr> <chr>                 <dbl>          <dbl>          <dbl>
##  1 AFG   AF    Afghanistan         42.8             18.2            39.0
##  2 ALB   AL    Albania             36.7             20.0            43.3
##  3 DZA   DZ    Algeria              9.86            30.7            59.4
##  4 AGO   AO    Angola              50.4              8.12           41.5
##  5 ARG   AR    Argentina            0.0920          21.4            78.5
##  6 ARM   AM    Armenia             29.6             17.2            53.2
##  7 AUS   AU    Australia            2.56            19.8            77.6
##  8 AUT   AT    Austria              3.58            25.3            71.2
##  9 AZE   AZ    Azerbaijan          35.9             14.9            49.3
## 10 BHS   BS    Bahamas, The         2.14            14.2            83.6
## # ℹ 177 more rows
## # ℹ 5 more variables: SL.EMP.TOTL.SP.ZS <dbl>, SL.FAM.WORK.ZS <dbl>,
## #   SL.EMP.MPYR.ZS <dbl>, SL.EMP.SELF.ZS <dbl>, SL.EMP.WORK.ZS <dbl>
…
¿Cuál de estos queremos extraer? No hay respuesta correcta; cada uno
de ellos puede ser interesante para un analista. Debido a que comunican
información completamente diferente (sin mencionar que no hay una forma
sencilla de combinarlos), se extraen mediante funciones separadas.
augment agrega las clasificaciones de puntos al conjunto de
datos original:

> df <- augment(km_2clst, df)

Es lo mismo que hacer lo siguiente:

> df %>% bind_cols(as_tibble(km_2clst$cluster))
## # A tibble: 187 × 16
##    iso3c iso2c country      SL.AGR.EMPL.ZS SL.IND.EMPL.ZS SL.SRV.EMPL.ZS
##    <chr> <chr> <chr>                 <dbl>          <dbl>          <dbl>
##  1 AFG   AF    Afghanistan         42.8             18.2            39.0
##  2 ALB   AL    Albania             36.7             20.0            43.3
##  3 DZA   DZ    Algeria              9.86            30.7            59.4
##  4 AGO   AO    Angola              50.4              8.12           41.5
##  5 ARG   AR    Argentina            0.0920          21.4            78.5
##  6 ARM   AM    Armenia             29.6             17.2            53.2
##  7 AUS   AU    Australia            2.56            19.8            77.6
##  8 AUT   AT    Austria              3.58            25.3            71.2
##  9 AZE   AZ    Azerbaijan          35.9             14.9            49.3
## 10 BHS   BS    Bahamas, The         2.14            14.2            83.6
## # ℹ 177 more rows
## # ℹ 10 more variables: SL.EMP.TOTL.SP.ZS <dbl>, prop_familiar <dbl>,
## #   prop_emp <dbl>, SL.EMP.SELF.ZS <dbl>, prop_asal <dbl>, prop_tcp <dbl>,
## #   prop_pob_rel_sal <dbl>, prop_pob_rel_no_sal <dbl>, .cluster <fct>,
## #   value <int>
…
una tibble assignments con las diferentes asignaciones
de clusterings pegadas a la tabla df original.

> assignments
## # A tibble: 1,870 × 16
##        k iso3c iso2c country      SL.AGR.EMPL.ZS SL.IND.EMPL.ZS SL.SRV.EMPL.ZS
##    <int> <chr> <chr> <chr>                 <dbl>          <dbl>          <dbl>
##  1     1 AFG   AF    Afghanistan         42.8             18.2            39.0
##  2     1 ALB   AL    Albania             36.7             20.0            43.3
##  3     1 DZA   DZ    Algeria              9.86            30.7            59.4
##  4     1 AGO   AO    Angola              50.4              8.12           41.5
##  5     1 ARG   AR    Argentina            0.0920          21.4            78.5
##  6     1 ARM   AM    Armenia             29.6             17.2            53.2
##  7     1 AUS   AU    Australia            2.56            19.8            77.6
##  8     1 AUT   AT    Austria              3.58            25.3            71.2
##  9     1 AZE   AZ    Azerbaijan          35.9             14.9            49.3
## 10     1 BHS   BS    Bahamas, The         2.14            14.2            83.6
## # ℹ 1,860 more rows
## # ℹ 9 more variables: SL.EMP.TOTL.SP.ZS <dbl>, prop_familiar <dbl>,
## #   prop_emp <dbl>, SL.EMP.SELF.ZS <dbl>, prop_asal <dbl>, prop_tcp <dbl>,
## #   prop_pob_rel_sal <dbl>, prop_pob_rel_no_sal <dbl>, .cluster <fct>
…
