Aprendizaje No Supervisado - E3
…
¿Cuál de estos queremos extraer? No hay respuesta correcta; cada uno
de ellos puede ser interesante para un analista. Debido a que comunican
información completamente diferente (sin mencionar que no hay una forma
sencilla de combinarlos), se extraen mediante funciones separadas.
augment agrega las clasificaciones de puntos al conjunto de
datos original:

> df <- augment(km_2clst, df)

Es lo mismo que hacer lo siguiente:

> df %>%
+     bind_cols(as_tibble(km_2clst$cluster))
## # A tibble: 187 × 16
##    iso3c iso2c country   SL.AG…¹ SL.IN…² SL.SR…³ SL.EM…⁴ prop_…⁵ prop_…⁶ SL.EM…⁷
##    <chr> <chr> <chr>       <dbl>   <dbl>   <dbl>   <dbl>   <dbl>   <dbl>   <dbl>
##  1 AFG   AF    Afghanis… 42.8      18.2     39.0    43.5  23.4    2.60      82.3
##  2 ALB   AL    Albania   36.7      20.0     43.3    48.9  27.4    2.52      55.4
##  3 DZA   DZ    Algeria    9.86     30.7     59.4    36.3   1.86   4.62      31.6
##  4 AGO   AO    Angola    50.4       8.12    41.5    72.2   8.83   4.26      70.3
##  5 ARG   AR    Argentina  0.0920   21.4     78.5    55.3   0.543  3.91      25.7
##  6 ARM   AM    Armenia   29.6      17.2     53.2    46.2   2.15   1.22      39.9
##  7 AUS   AU    Australia  2.56     19.8     77.6    62.1   0.182  5.75      16.4
##  8 AUT   AT    Austria    3.58     25.3     71.2    57.8   1.19   4.55      11.9
##  9 AZE   AZ    Azerbaij… 35.9      14.9     49.3    62.8  33.5   12.8       68.0
## 10 BHS   BS    Bahamas,…  2.14     14.2     83.6    66.8   0.313  0.0120    14.1
## # … with 177 more rows, 6 more variables: prop_asal <dbl>, prop_tcp <dbl>,
## #   prop_pob_rel_sal <dbl>, prop_pob_rel_no_sal <dbl>, .cluster <fct>,
## #   value <int>, and abbreviated variable names ¹​SL.AGR.EMPL.ZS,
## #   ²​SL.IND.EMPL.ZS, ³​SL.SRV.EMPL.ZS, ⁴​SL.EMP.TOTL.SP.ZS, ⁵​prop_familiar,
## #   ⁶​prop_emp, ⁷​SL.EMP.SELF.ZS
…
una tibble assignments con las diferentes asignaciones
de clusterings pegadas a la tabla df original.

> assignments
## # A tibble: 1,870 × 16
##        k iso3c iso2c country     SL.AG…¹ SL.IN…² SL.SR…³ SL.EM…⁴ prop_…⁵ prop_…⁶
##    <int> <chr> <chr> <chr>         <dbl>   <dbl>   <dbl>   <dbl>   <dbl>   <dbl>
##  1     1 AFG   AF    Afghanistan 42.8      18.2     39.0    43.5  23.4    2.60  
##  2     1 ALB   AL    Albania     36.7      20.0     43.3    48.9  27.4    2.52  
##  3     1 DZA   DZ    Algeria      9.86     30.7     59.4    36.3   1.86   4.62  
##  4     1 AGO   AO    Angola      50.4       8.12    41.5    72.2   8.83   4.26  
##  5     1 ARG   AR    Argentina    0.0920   21.4     78.5    55.3   0.543  3.91  
##  6     1 ARM   AM    Armenia     29.6      17.2     53.2    46.2   2.15   1.22  
##  7     1 AUS   AU    Australia    2.56     19.8     77.6    62.1   0.182  5.75  
##  8     1 AUT   AT    Austria      3.58     25.3     71.2    57.8   1.19   4.55  
##  9     1 AZE   AZ    Azerbaijan  35.9      14.9     49.3    62.8  33.5   12.8   
## 10     1 BHS   BS    Bahamas, T…  2.14     14.2     83.6    66.8   0.313  0.0120
## # … with 1,860 more rows, 6 more variables: SL.EMP.SELF.ZS <dbl>,
## #   prop_asal <dbl>, prop_tcp <dbl>, prop_pob_rel_sal <dbl>,
## #   prop_pob_rel_no_sal <dbl>, .cluster <fct>, and abbreviated variable names
## #   ¹​SL.AGR.EMPL.ZS, ²​SL.IND.EMPL.ZS, ³​SL.SRV.EMPL.ZS, ⁴​SL.EMP.TOTL.SP.ZS,
## #   ⁵​prop_familiar, ⁶​prop_emp
…
