Clase 1 - Árboles de decisión
…
tree_depth(): es un número que define la máxima
cantidad de particiones que puede llegar a tener el modelo.
Prepoda.

min_n(): mínimo número de puntos que debe haber en un
nodo para que el árbol se siga partiendo hacia abajo. Prepoda.

set.seed(1912)

tree_grid <- grid_regular(cost_complexity(), tree_depth(), min_n(), levels = 4)

tree_grid

## # A tibble: 64 × 3
##    cost_complexity tree_depth min_n
##              <dbl>      <int> <int>
##  1    0.0000000001          1     2
##  2    0.0000001             1     2
##  3    0.0001                1     2
##  4    0.1                   1     2
##  5    0.0000000001          5     2
##  6    0.0000001             5     2
##  7    0.0001                5     2
##  8    0.1                   5     2
##  9    0.0000000001         10     2
## 10    0.0000001            10     2
## # … with 54 more rows

Hacemos las muestras de cross-validation…

set.seed(111)

folds <- vfold_cv(train, v = 10)

tidy(folds)

## # A tibble: 107,620 × 3
##      Row Data     Fold  
##    <int> <chr>    <chr> 
##  1     1 Analysis Fold01
##  2     1 Analysis Fold02
##  3     1 Analysis Fold03
##  4     1 Analysis Fold05
##  5     1 Analysis Fold06
##  6     1 Analysis Fold07
##  7     1 Analysis Fold08
##  8     1 Analysis Fold09
##  9     1 Analysis Fold10
## 10     2 Analysis Fold01
## # … with 107,610 more rows
…
tree_rs <- tree_wf %>% 
  tune_grid(
  resamples = folds,
  grid = tree_grid,
  metrics = metric_set(precision, recall,
                       accuracy, f_meas)
)

Podemos ver los resultados de este objeto con
collect_metrics().

collect_metrics(tree_rs)

## # A tibble: 256 × 9
##    cost_complexity tree_depth min_n .metric  .esti…¹  mean     n std_err .config
##              <dbl>      <int> <int> <chr>    <chr>   <dbl> <int>   <dbl> <chr>  
##  1    0.0000000001          1     2 accuracy binary  0.647    10 0.00472 Prepro…
##  2    0.0000000001          1     2 f_meas   binary  0.541    10 0.00472 Prepro…
##  3    0.0000000001          1     2 precisi… binary  0.469    10 0.00451 Prepro…
##  4    0.0000000001          1     2 recall   binary  0.639    10 0.00795 Prepro…
##  5    0.0000001             1     2 accuracy binary  0.647    10 0.00472 Prepro…
##  6    0.0000001             1     2 f_meas   binary  0.541    10 0.00472 Prepro…
##  7    0.0000001             1     2 precisi… binary  0.469    10 0.00451 Prepro…
##  8    0.0000001             1     2 recall   binary  0.639    10 0.00795 Prepro…
##  9    0.0001                1     2 accuracy binary  0.647    10 0.00472 Prepro…
## 10    0.0001                1     2 f_meas   binary  0.541    10 0.00472 Prepro…
## # … with 246 more rows, and abbreviated variable name ¹​.estimator
…
